digraph release {
  graph [splines=polyline]
  node[shape=rectangle, fontname="Courier New"]
  compound=true
  fontname="Courier New bold"
  rankdir=LR
  style=filled

  subgraph cluster1 {
    label = "chat-ops"
    node[fillcolor="#FFFFFF", style=filled]
    fillcolor="#EFEFEF"
    color="#E6E18F"
    penwidth=5

    C1[label="release_issue 11.8.0"]
    C8[label="release_issue 11.8.0-rc1"]
    C2[label="prepare 11.8.0-rc1"]
    C3[label="cherry_pick 11.8.0-rc1"]
    C4[label="tag 11.8.0-rc1"]
    C5[label="qa_issue 11.7.5..11.8.0-rc1"]
    C6[label="deploy 11.8.0-rc1 --production --canary"]
    C7[label="deploy 11.8.0-rc1 --production"]
  }

  subgraph cluster2 {
    label = "release-tools"
    node[fillcolor="#FFFFFF", style=filled]
    fillcolor="#EFEFEF"
    color="#E6E18F"
    penwidth=5

    R1[label="monthly_issue"]
    R6[label="patch_issue"]
    R2[label="patch_merge_request"]
    R3[label="cherry_pick"]
    R4[label="tag"]
    R5[label="qa_issue"]
  }
  subgraph cluster3 { 
    label = "release-tasks"
    node[fillcolor="#CACBCA", style=filled]
    fillcolor="#EFEFEF"
    color="#E8B9AB"
    penwidth=5


    T1[label="Release 11.8"]
    T2[label="Release 11.8.0-rc1"]
    T3[label="11.8.0-rc1 QA Tasks"]
  }

  subgraph cluster4 {
    label = "security work"
    style=unfilled

    subgraph  cluster40 {
      label = "gitlab-ee"
      color="#84B5D6"
      fillcolor="#EFEFEF"
      penwidth=5
      style=filled

      sEE1[label="11.8.0-rc1-ee MR", fillcolor="#63B4D1", style=filled]
      sEE3[label="11-8-stable-ee", fillcolor="#A4FFCB", style=filled]
      sEE4[label="v11.8.0-ee", fillcolor="#D6D2F3", style=filled]
    }
    subgraph cluster41 {
      label = "gitlab-ce"
      color="#84B5D6"
      fillcolor="#EFEFEF"
      penwidth=5
      style=filled

      sCE1[label="11.8.0-rc1 MR", fillcolor="#63B4D1", style=filled]
      sCE3[label="11-8-stable", fillcolor="#A4FFCB", style=filled]
      sCE4[label="v11.8.0-ce", fillcolor="#D6D2F3", style=filled]
    }
  }

  subgraph cluster5 {
    label = "non-security work"
    style=unfilled

    subgraph  cluster50 {
      label = "gitlab-ee"
      fillcolor="#EFEFEF"
      color="#E8B9AB"
      penwidth=5
      style=filled

      EE1[label="11.8.0-rc1-ee MR", fillcolor="#63B4D1", style=filled]
      EE3[label="11-8-stable-ee", fillcolor="#A4FFCB", style=filled]
      EE4[label="v11.8.0-ee", fillcolor="#D6D2F3", style=filled]
    }

    subgraph cluster51 {
      label = "gitlab-ce"
      fillcolor="#EFEFEF"
      color="#E8B9AB"
      penwidth=5
      style=filled

      CE1[label="11.8.0-rc1 MR", fillcolor="#63B4D1", style=filled]
      CE3[label="11-8-stable", fillcolor="#A4FFCB", style=filled]
      CE4[label="v11.8.0-ce", fillcolor="#D6D2F3", style=filled]
    }
  }

  subgraph cluster6 {
    label = "deployer"
    node[fillcolor="#FFFFFF", style=filled]
    color="#E6E18F"
    fillcolor="#EFEFEF"
    penwidth=5

    D1[label="Deploy to Staging"]
    D2[label="Deploy to Canary"]
    D3[label="Deploy to Production"]
  }

  subgraph cluster7 {
    label = "omnibus-gitlab"
    node[fillcolor="#FFFFFF", style=filled]
    color="#84B5D6"
    fillcolor="#EFEFEF"
    penwidth=5

    O1[label="Nightly EE"]
    O2[label="Nightly CE"]
    O3[label="Build EE"]
    O4[label="Build CE"]
    O5[label="11-8-stable", fillcolor="#A4FFCB", style=filled]
    O6[label="11-8-stable-ee", fillcolor="#A4FFCB", style=filled]
    O7[label="11.8.0+ee", fillcolor="#D6D2F3", style=filled]
    O8[label="11.8.0+ce", fillcolor="#D6D2F3", style=filled]
  }

  subgraph cluster9 {
    label = "GitLab Components"
    style=unfilled
    node[color="#E8B9AB", penwidth=5]

    gls1[label="Gitaly"]
    gls2[label="Pages"]
    gls3[label="Shell"]
    gls4[label="Workhorse"]
  }

  subgraph cluster8 {
    label = "Legend"
    style=unfilled

    subgraph cluster80 {
      label = "Output Object"

      L0[label="Build Artifact", fillcolor="#FC7753", style=filled]
      L1[label="repository branch", fillcolor="#A4FFCB", style=filled]
      L2[label="Project Issue", fillcolor="#CACBCA", style=filled]
      L3[label="Project Merge Request", fillcolor="#63B4D1", style=filled]
      L4[label="repository tag", fillcolor="#D6D2F3", style=filled]
      L8[label="action"]
    }

    subgraph cluster81 {
      label = "Location of Functionality/Project"

      L5[label="dev.gitlab.org", color="#84B5D6", penwidth=5]
      L6[label="ops.gitlab.net", color="#E6E18F", penwidth=5]
      L7[label="gitlab.com", color="#E8B9AB", penwidth=5]
    }
  }

  subgraph cluster10 {
    label = "Build Artifacts"
    style = unfilled
    node[fillcolor="#FC7753", style=filled]

    B1[label="gitlab-ee RPM/Debian/Docker"]
    B2[label="gitlab-ce RPM/Debian/Docker"]
    B3[label="gitlab-ee nightly Debian Package"]
    B4[label="gitlab-ee Frontend Assets"]
    B5[label="gitlab-ce Frontend Assets"]
  }

  C1 -> R1
  C8 -> R6
  C2 -> R2
  C3 -> R3
  C4 -> R4
  C5 -> R5
  C6 -> D2
  C7 -> D3

  R3 -> EE3
  R3 -> CE3

  R1 -> T1
  R6 -> T2
  R2 -> EE1
  R2 -> CE1
  R4 -> CE4
  R4 -> EE4
  R4 -> O7
  R4 -> O8
  R5 -> T3

  O7 -> O3
  O8 -> O4

  O3 -> D1

  R1 -> EE3
  R1 -> CE3
  R1 -> O5
  R1 -> O6

  O1 -> O1
  O2 -> O2

  EE3 -> O3
  CE3 -> O4

  B4 -> O3
  B5 -> O4

  O1 -> B3
  O3 -> B1
  O4 -> B2

  B1 -> D1

  // Fake line to connect GitLab subcomponents to
  // the `gitlab-[ce]e` tools
  gls1 -> EE1[ltail=cluster9, lhead=cluster50]
  gls1 -> CE1[ltail=cluster9, lhead=cluster51]

  // Fake line to align the graphs
  EE1 -> sEE1[style=invis]

}
